audio/home/a033.wav	home	1.303634	65.568621	water tap running 
audio/home/a033.wav	home	3.043689	4.893775	dishes
audio/home/a033.wav	home	6.7737	7.82805	drawer
audio/home/a033.wav	home	7.82805	8.404958	drawer
audio/home/a033.wav	home	8.94208	9.300161	dishes
audio/home/a033.wav	home	12.970492	13.507613	dishes
audio/home/a033.wav	home	14.303349	14.69127	drawer
audio/home/a033.wav	home	20.161953	21.355557	object impact
audio/home/a033.wav	home	21.872785	22.4298	drawer
audio/home/a033.wav	home	22.638681	23.076335	drawer
audio/home/a033.wav	home	24.051111	25.821623	dishes
audio/home/a033.wav	home	31.003852	32.406336	drawer
audio/home/a033.wav	home	31.620547	32.247189	object impact
audio/home/a033.wav	home	33.361219	33.938128	object impact
audio/home/a033.wav	home	34.236528	36.544162	object impact
audio/home/a033.wav	home	39.189983	40.234386	drawer
audio/home/a033.wav	home	40.393533	41.020175	object impact
audio/home/a033.wav	home	40.950548	41.796018	drawer
audio/home/a033.wav	home	42.472393	43.019461	object impact
audio/home/a033.wav	home	45.575762	46.630112	object impact
audio/home/a033.wav	home	49.43508	50.310389	drawer
audio/home/a033.wav	home	50.220869	50.877351	drawer
audio/home/a033.wav	home	51.135965	52.946264	drawer
audio/home/a033.wav	home	53.821573	56.636488	drawer
audio/home/a033.wav	home	59.262416	61.450689	drawer
audio/home/a033.wav	home	62.345892	63.82795	dishes
audio/home/a033.wav	home	68.841085	73.864166	water tap running 
audio/home/a033.wav	home	78.66842	79.125968	object impact
audio/home/a033.wav	home	79.623303	80.031118	object impact
audio/home/a033.wav	home	80.677653	81.184935	object impact
audio/home/a033.wav	home	88.038208	88.51565	object impact
audio/home/a033.wav	home	90.057388	95.140149	washing dishes
audio/home/a033.wav	home	90.674083	93.648145	dishes
audio/home/a033.wav	home	94.105693	94.911375	dishes
audio/home/a033.wav	home	95.279403	95.935885	dishes
audio/home/a033.wav	home	102.450971	103.047773	glass jingling
audio/home/a033.wav	home	103.306387	103.873349	glass jingling
audio/home/a033.wav	home	103.803722	109.145098	washing dishes
audio/home/a033.wav	home	104.669084	107.772454	dishes
audio/home/a033.wav	home	109.781686	111.472625	dishes
audio/home/a033.wav	home	116.63496	117.241708	dishes
audio/home/a033.wav	home	118.534779	122.006176	washing dishes
audio/home/a033.wav	home	122.44383	123.020739	glass jingling
audio/home/a033.wav	home	125.746134	127.815046	dishes
audio/home/a033.wav	home	127.496752	132.798341	washing dishes
audio/home/a033.wav	home	129.12801	132.798341	dishes
audio/home/a033.wav	home	133.743277	135.285015	dishes
audio/home/a033.wav	home	136.130484	137.602595	dishes
audio/home/a033.wav	home	137.602595	146.0175	washing dishes
audio/home/a033.wav	home	140.278257	141.631007	dishes
audio/home/a033.wav	home	146.942543	148.364921	dishes
audio/home/a033.wav	home	148.364921	149.727618	drawer
audio/home/a033.wav	home	149.986232	150.433834	drawer
audio/home/a033.wav	home	151.508077	151.975572	drawer
audio/home/a033.wav	home	152.164559	153.477523	drawer
audio/home/a033.wav	home	154.064378	158.550338	people walking
audio/home/a033.wav	home	158.938259	159.346073	cupboard
audio/home/a033.wav	home	162.200775	163.503792	cupboard
audio/home/a033.wav	home	165.244464	168.41746	people walking
audio/home/a033.wav	home	167.850499	168.32794	(object) snapping
audio/home/a033.wav	home	170.386906	171.103068	glass jingling
audio/home/a033.wav	home	171.272162	175.022067	people walking
audio/home/a033.wav	home	175.0718	175.469668	object impact
audio/home/a033.wav	home	176.504124	177.3297	object impact
audio/home/b043.wav	home	0.170353	0.383293	object impact
audio/home/b043.wav	home	3.410093	3.75384	object impact
audio/home/b043.wav	home	3.75384	4.541721	people walking
audio/home/b043.wav	home	5.034526	7.99136	people walking
audio/home/b043.wav	home	7.99136	8.64235	object impact
audio/home/b043.wav	home	21.154136	21.364034	dishes
audio/home/b043.wav	home	37.368047	37.611408	object impact
audio/home/b043.wav	home	38.14376	40.622998	people walking
audio/home/b043.wav	home	40.775098	40.893737	object impact
audio/home/b043.wav	home	41.17056	57.737344	water tap running 
audio/home/b043.wav	home	43.421647	43.811024	dishes
audio/home/b043.wav	home	44.687123	44.827055	dishes
audio/home/b043.wav	home	47.008176	47.233285	dishes
audio/home/b043.wav	home	47.723048	48.468341	object impact
audio/home/b043.wav	home	49.125415	50.330051	dishes
audio/home/b043.wav	home	51.498183	52.143089	dishes
audio/home/b043.wav	home	54.190361	54.321168	object impact
audio/home/b043.wav	home	60.791522	61.050093	(object) snapping
audio/home/b043.wav	home	61.214362	61.631117	object impact
audio/home/b043.wav	home	62.053956	62.768829	dishes
audio/home/b043.wav	home	63.237298	67.051978	dishes
audio/home/b043.wav	home	70.504659	71.812723	dishes
audio/home/b043.wav	home	72.177765	74.626582	dishes
audio/home/b043.wav	home	77.975835	78.788052	dishes
audio/home/b043.wav	home	88.038803	88.997036	dishes
audio/home/b043.wav	home	89.51722	91.27246	dishes
audio/home/b043.wav	home	93.760824	94.551746	drawer
audio/home/b043.wav	home	94.551746	95.513021	(object) rustling
audio/home/b043.wav	home	95.513021	96.611187	drawer
audio/home/b043.wav	home	106.446004	108.657545	people walking
audio/home/b043.wav	home	119.50231	119.846057	object impact
audio/home/b043.wav	home	122.340505	123.669863	washing dishes
audio/home/b043.wav	home	127.448039	128.196374	object impact
audio/home/b043.wav	home	131.3844	133.732831	people walking
audio/home/b043.wav	home	150.129264	151.601596	people walking
audio/home/b043.wav	home	152.973543	154.430665	(object) rustling
audio/home/b043.wav	home	157.786002	158.549547	drawer
audio/home/b043.wav	home	158.868958	159.717678	(object) rustling
audio/home/b043.wav	home	165.786488	166.130235	(object) rustling
audio/home/b043.wav	home	166.130235	166.4101	object impact
audio/home/b043.wav	home	167.462635	167.827676	(object) rustling
audio/home/b043.wav	home	167.988903	168.171423	object impact
audio/home/b043.wav	home	174.018166	174.383207	(object) snapping
audio/home/b043.wav	home	179.658052	179.831447	(object) snapping
audio/home/b043.wav	home	181.915223	182.225508	object impact
audio/home/b043.wav	home	183.563992	183.862109	cupboard
audio/home/b043.wav	home	199.677518	200.292004	glass jingling
audio/home/b043.wav	home	200.574911	202.914216	people walking
audio/home/b043.wav	home	202.914216	203.699055	drawer
audio/home/b043.wav	home	210.671341	225.370332	water tap running 
audio/home/b043.wav	home	216.901377	217.217746	object impact
audio/home/b043.wav	home	229.288441	236.67444	(object) rustling
audio/home/b043.wav	home	238.574175	238.70194	(object) snapping
audio/home/b043.wav	home	265.013803	265.135483	(object) snapping
audio/home/b043.wav	home	266.881597	267.940216	object impact
audio/home/b043.wav	home	268.725055	270.985268	people walking
audio/home/b043.wav	home	271.441569	278.115739	water tap running 
audio/home/b043.wav	home	272.609701	274.529209	dishes
audio/home/b043.wav	home	277.796328	278.447318	dishes
audio/home/b043.wav	home	279.512021	279.95007	dishes
audio/home/b043.wav	home	280.737951	282.143359	people walking
audio/home/b043.wav	home	283.682616	284.85379	(object) rustling
audio/home/b043.wav	home	285.103235	285.872863	(object) rustling
audio/home/b043.wav	home	286.06451	291.628346	(object) rustling
audio/home/b043.wav	home	293.347081	293.517434	(object) rustling
audio/home/b043.wav	home	294.016323	295.878033	(object) rustling
audio/home/b043.wav	home	298.898749	301.539213	(object) rustling
audio/home/b043.wav	home	303.187983	304.769828	(object) rustling
audio/home/b043.wav	home	306.509857	308.091702	(object) rustling
audio/home/b043.wav	home	310.677411	312.177121	(object) rustling
audio/home/b043.wav	home	314.948392	317.080841	(object) rustling
audio/home/b043.wav	home	318.951677	323.721548	(object) rustling
audio/home/b043.wav	home	325.236469	326.501945	people walking
audio/home/b043.wav	home	330.669498	330.845935	(object) snapping
audio/home/a029.wav	home	0.0	10.045824	washing dishes
audio/home/a029.wav	home	11.177644	12.205898	dishes
audio/home/a029.wav	home	12.302066	13.544848	dishes
audio/home/a029.wav	home	20.816604	21.21607	(object) snapping
audio/home/a029.wav	home	21.534163	22.325697	cutlery
audio/home/a029.wav	home	22.162952	22.747355	cutlery
audio/home/a029.wav	home	23.006268	33.0299	washing dishes
audio/home/a029.wav	home	38.770371	40.346041	cutlery
audio/home/a029.wav	home	39.450942	41.884724	cutlery
audio/home/a029.wav	home	41.995687	56.909075	washing dishes
audio/home/a029.wav	home	44.947295	45.761021	cutlery
audio/home/a029.wav	home	48.313164	49.141685	cutlery
audio/home/a029.wav	home	51.80479	52.6703	cutlery
audio/home/a029.wav	home	55.666293	59.979043	cutlery
audio/home/a029.wav	home	59.439025	59.979043	cutlery
audio/home/a029.wav	home	61.288403	61.643484	cutlery
audio/home/a029.wav	home	62.375838	63.825751	object impact
audio/home/a029.wav	home	63.55944	69.647594	washing dishes
audio/home/a029.wav	home	70.143228	70.631463	object impact
audio/home/a029.wav	home	71.607935	73.043053	cutlery
audio/home/a029.wav	home	76.113021	98.150215	washing dishes
audio/home/a029.wav	home	79.316145	82.600641	dishes
audio/home/a029.wav	home	84.849485	85.145386	dishes
audio/home/a029.wav	home	98.416526	98.852979	object impact
audio/home/a029.wav	home	101.715817	103.010382	cutlery
audio/home/a029.wav	home	103.713146	104.290152	cutlery
audio/home/a029.wav	home	104.290152	104.68222	object impact
audio/home/a029.wav	home	106.08035	106.568586	cutlery
audio/home/a029.wav	home	106.849692	107.234363	cupboard
audio/home/a029.wav	home	108.876611	120.705236	washing dishes
audio/home/a029.wav	home	108.950586	109.335257	cutlery
audio/home/a029.wav	home	121.067714	121.444987	object impact
audio/home/a029.wav	home	122.110763	123.782601	cutlery
audio/home/a029.wav	home	123.649446	124.063707	drawer
audio/home/a029.wav	home	125.099359	126.586259	people walking
audio/home/a029.wav	home	126.85257	127.303818	drawer
audio/home/a029.wav	home	128.169327	128.657563	cutlery
audio/home/a029.wav	home	128.746333	129.131004	cutlery
audio/home/a029.wav	home	133.710065	135.049015	object impact
audio/home/a029.wav	home	136.010692	137.423617	water tap running 
audio/home/a029.wav	home	138.045008	139.176828	washing dishes
audio/home/a029.wav	home	139.672461	140.057132	object impact
audio/home/a029.wav	home	143.815069	145.523895	washing dishes
audio/home/a029.wav	home	145.028262	145.590473	water tap running 
audio/home/a029.wav	home	147.410261	148.12782	dishes
audio/home/a029.wav	home	150.028981	150.450639	dishes
audio/home/a029.wav	home	150.83531	151.338341	washing dishes
audio/home/a029.wav	home	154.726402	158.728457	washing dishes
audio/home/a029.wav	home	162.982028	163.655202	washing dishes
audio/home/a029.wav	home	163.92891	164.720444	dishes
audio/home/a029.wav	home	164.513313	168.574549	washing dishes
audio/home/a029.wav	home	167.561089	168.041928	dishes
audio/home/a029.wav	home	168.478381	168.900039	(object) snapping
audio/home/a029.wav	home	171.393001	171.81466	object impact
audio/home/a029.wav	home	173.930349	175.957268	object impact
audio/home/a029.wav	home	177.000317	177.355398	object impact
audio/home/a029.wav	home	177.569926	178.642565	washing dishes
audio/home/a029.wav	home	178.760925	179.84836	drawer
audio/home/a037.wav	home	0.0	2.601028	(object) rustling
audio/home/a037.wav	home	3.542141	3.897837	(object) rustling
audio/home/a037.wav	home	3.779271	5.772652	drawer
audio/home/a037.wav	home	5.08349	6.936074	people walking
audio/home/a037.wav	home	6.995357	8.321807	cupboard
audio/home/a037.wav	home	8.203242	9.396306	people walking
audio/home/a037.wav	home	13.294143	14.020355	object impact
audio/home/a037.wav	home	15.020751	16.006325	object impact
audio/home/a037.wav	home	22.386625	23.16471	glass jingling
audio/home/a037.wav	home	22.831245	23.305506	glass jingling
audio/home/a037.wav	home	24.431877	26.529002	object impact
audio/home/a037.wav	home	26.966212	27.36637	object impact
audio/home/a037.wav	home	27.425653	28.863258	cupboard
audio/home/a037.wav	home	29.033696	29.678395	cupboard
audio/home/a037.wav	home	33.220536	45.247511	object impact
audio/home/a037.wav	home	47.166788	49.249092	object impact
audio/home/a037.wav	home	49.249092	51.901992	people walking
audio/home/a037.wav	home	52.368844	54.540072	object impact
audio/home/a037.wav	home	54.251069	55.229233	object impact
audio/home/a037.wav	home	56.585325	57.000303	(object) snapping
audio/home/a037.wav	home	58.437909	58.882529	(object) snapping
audio/home/a037.wav	home	58.978863	60.994474	object impact
audio/home/a037.wav	home	61.024116	65.803782	people walking
audio/home/a037.wav	home	62.921162	64.707053	object impact
audio/home/a037.wav	home	70.346318	70.902094	object impact
audio/home/a037.wav	home	72.843602	73.354915	object impact
audio/home/a037.wav	home	75.051882	76.904466	people walking
audio/home/a037.wav	home	76.519128	76.99339	object impact
audio/home/a037.wav	home	82.180625	83.855361	object impact
audio/home/a037.wav	home	84.329622	84.774242	people walking
audio/home/a037.wav	home	85.722765	87.182601	object impact
audio/home/a037.wav	home	88.227459	88.620207	object impact
audio/home/a037.wav	home	91.636213	92.147526	glass jingling
audio/home/a037.wav	home	93.214615	93.888955	glass jingling
audio/home/a037.wav	home	95.585922	96.149108	glass jingling
audio/home/a037.wav	home	99.009497	99.417066	object impact
audio/home/a037.wav	home	100.017303	103.507571	object impact
audio/home/a037.wav	home	104.419043	104.826611	object impact
audio/home/a037.wav	home	121.425763	122.581776	object impact
audio/home/a037.wav	home	127.598573	130.281115	people walking
audio/home/a037.wav	home	129.325181	129.688288	object impact
audio/home/a037.wav	home	131.992902	133.282301	people walking
audio/home/a037.wav	home	133.48979	133.897359	object impact
audio/home/a037.wav	home	133.986283	135.008909	people walking
audio/home/a037.wav	home	135.008909	138.751129	water tap running 
audio/home/a037.wav	home	139.040132	141.263233	people walking
audio/home/a037.wav	home	142.233987	145.657562	people walking
audio/home/a037.wav	home	145.657562	146.50234	object impact
audio/home/a037.wav	home	146.880267	147.673173	people walking
audio/home/a037.wav	home	148.088152	149.59245	object impact
audio/home/a037.wav	home	150.555794	151.163441	drawer
audio/home/a037.wav	home	151.459855	158.42557	people walking
audio/home/a037.wav	home	154.23132	155.127971	object impact
audio/home/a037.wav	home	159.003577	160.070665	object impact
audio/home/a037.wav	home	160.737595	161.834325	object impact
audio/home/a037.wav	home	162.301176	163.108903	cupboard
audio/home/a037.wav	home	163.405316	164.976307	people walking
audio/home/a037.wav	home	165.117104	165.754393	object impact
audio/home/a037.wav	home	166.250885	171.075014	people walking
audio/home/a037.wav	home	168.251676	168.770399	object impact
audio/home/a037.wav	home	175.417471	175.899142	object impact
audio/home/a037.wav	home	176.795793	178.922559	object impact
audio/home/a037.wav	home	176.995872	179.656183	people walking
audio/home/a037.wav	home	179.656183	181.167891	drawer
audio/home/a037.wav	home	180.330523	180.841836	cutlery
audio/home/a035.wav	home	1.286753	6.232943	water tap running 
audio/home/a035.wav	home	2.484252	3.153661	dishes
audio/home/a035.wav	home	7.616388	174.105876	water tap running 
audio/home/a035.wav	home	8.256046	8.702319	object impact
audio/home/a035.wav	home	9.46842	11.439458	cupboard
audio/home/a035.wav	home	11.766725	12.153495	cupboard
audio/home/a035.wav	home	13.484875	21.279772	object impact
audio/home/a035.wav	home	24.106166	30.614311	object impact
audio/home/a035.wav	home	31.499418	31.893626	object impact
audio/home/a035.wav	home	32.258082	32.607662	object impact
audio/home/a035.wav	home	33.686155	34.645641	object impact
audio/home/a035.wav	home	35.523311	36.802626	dishes
audio/home/a035.wav	home	37.710047	38.282764	dishes
audio/home/a035.wav	home	38.68441	40.01579	dishes
audio/home/a035.wav	home	40.149672	43.124823	washing dishes
audio/home/a035.wav	home	41.257916	44.776033	object impact
audio/home/a035.wav	home	47.141278	47.617302	object impact
audio/home/a035.wav	home	48.628854	53.716363	object impact
audio/home/a035.wav	home	55.241129	58.558423	object impact
audio/home/a035.wav	home	64.441785	65.453337	object impact
audio/home/a035.wav	home	66.10787	68.748317	dishes
audio/home/a035.wav	home	75.992811	78.157234	dishes
audio/home/a035.wav	home	78.841519	79.25804	object impact
audio/home/a035.wav	home	81.40015	81.99518	dishes
audio/home/a035.wav	home	83.475318	84.531497	object impact
audio/home/a035.wav	home	85.275285	85.684368	(object) snapping
audio/home/a035.wav	home	86.078576	87.67772	object impact
audio/home/a035.wav	home	91.716488	92.995803	dishes
audio/home/a035.wav	home	93.412324	93.754467	object impact
audio/home/a035.wav	home	94.483379	95.160226	object impact
audio/home/a035.wav	home	97.674229	98.388266	drawer
audio/home/a035.wav	home	98.537023	99.823776	cutlery
audio/home/a035.wav	home	103.111319	104.680711	dishes
audio/home/a035.wav	home	105.201363	106.272418	object impact
audio/home/a035.wav	home	110.08805	110.430192	(object) snapping
audio/home/a035.wav	home	112.15578	112.817751	object impact
audio/home/a035.wav	home	116.930898	117.734189	dishes
audio/home/a035.wav	home	119.102759	120.025056	dishes
audio/home/a035.wav	home	119.340771	124.896867	object impact
audio/home/a035.wav	home	130.400898	131.241378	washing dishes
audio/home/a035.wav	home	133.881825	134.595861	dishes
audio/home/a035.wav	home	136.455331	137.786712	object impact
audio/home/a035.wav	home	137.846215	139.430483	washing dishes
audio/home/a035.wav	home	142.554392	143.29818	object impact
audio/home/a035.wav	home	143.446938	144.510554	object impact
audio/home/a035.wav	home	145.50723	147.485706	cupboard
audio/home/a035.wav	home	147.939417	148.274121	object impact
audio/home/a035.wav	home	148.430317	149.255921	cupboard
audio/home/a035.wav	home	153.101305	158.389637	washing dishes
audio/home/a035.wav	home	159.274744	159.862337	dishes
audio/home/a035.wav	home	160.375551	161.699493	cupboard
audio/home/a035.wav	home	164.548201	165.388681	object impact
audio/home/a035.wav	home	166.05809	166.787002	dishes
audio/home/a035.wav	home	167.07708	167.575418	object impact
audio/home/a035.wav	home	168.252265	172.305909	washing dishes
audio/home/a035.wav	home	174.864539	175.303374	object impact
audio/home/a035.wav	home	175.898404	177.118217	dishes
audio/home/a035.wav	home	177.17772	178.36778	dishes
audio/home/a035.wav	home	178.628106	179.208261	(object) snapping
audio/home/a035.wav	home	180.428073	181.119796	(object) snapping
